(['C:\\Users\\User\\Desktop\\projects\\trivia-project\\Proxy Server\\main.py'],
 ['C:\\Users\\User\\Desktop\\projects\\trivia-project\\Proxy Server'],
 [],
 ['C:\\Users\\User\\Desktop\\projects\\trivia-project\\Proxy '
  'Server\\venv\\Lib\\site-packages\\_pyinstaller_hooks_contrib\\hooks\\stdhooks',
  'C:\\Users\\User\\Desktop\\projects\\trivia-project\\Proxy '
  'Server\\venv\\Lib\\site-packages\\_pyinstaller_hooks_contrib\\hooks'],
 {},
 [],
 [],
 False,
 {},
 [],
 [],
 '3.11.7 (tags/v3.11.7:fa7a6f2, Dec  4 2023, 19:24:49) [MSC v.1937 64 bit '
 '(AMD64)]',
 [('pyi_rth_inspect',
   'C:\\Users\\User\\Desktop\\projects\\trivia-project\\Proxy '
   'Server\\venv\\Lib\\site-packages\\PyInstaller\\hooks\\rthooks\\pyi_rth_inspect.py',
   'PYSOURCE'),
  ('pyi_rth_pkgutil',
   'C:\\Users\\User\\Desktop\\projects\\trivia-project\\Proxy '
   'Server\\venv\\Lib\\site-packages\\PyInstaller\\hooks\\rthooks\\pyi_rth_pkgutil.py',
   'PYSOURCE'),
  ('pyi_rth_multiprocessing',
   'C:\\Users\\User\\Desktop\\projects\\trivia-project\\Proxy '
   'Server\\venv\\Lib\\site-packages\\PyInstaller\\hooks\\rthooks\\pyi_rth_multiprocessing.py',
   'PYSOURCE'),
  ('main',
   'C:\\Users\\User\\Desktop\\projects\\trivia-project\\Proxy Server\\main.py',
   'PYSOURCE')],
 [('multiprocessing.popen_forkserver',
   'C:\\Users\\User\\AppData\\Local\\Programs\\Python\\Python311\\Lib\\multiprocessing\\popen_forkserver.py',
   'PYMODULE'),
  ('multiprocessing.connection',
   'C:\\Users\\User\\AppData\\Local\\Programs\\Python\\Python311\\Lib\\multiprocessing\\connection.py',
   'PYMODULE'),
  ('multiprocessing.resource_sharer',
   'C:\\Users\\User\\AppData\\Local\\Programs\\Python\\Python311\\Lib\\multiprocessing\\resource_sharer.py',
   'PYMODULE'),
  ('multiprocessing.process',
   'C:\\Users\\User\\AppData\\Local\\Programs\\Python\\Python311\\Lib\\multiprocessing\\process.py',
   'PYMODULE'),
  ('signal',
   'C:\\Users\\User\\AppData\\Local\\Programs\\Python\\Python311\\Lib\\signal.py',
   'PYMODULE'),
  ('selectors',
   'C:\\Users\\User\\AppData\\Local\\Programs\\Python\\Python311\\Lib\\selectors.py',
   'PYMODULE'),
  ('xmlrpc.client',
   'C:\\Users\\User\\AppData\\Local\\Programs\\Python\\Python311\\Lib\\xmlrpc\\client.py',
   'PYMODULE'),
  ('xmlrpc',
   'C:\\Users\\User\\AppData\\Local\\Programs\\Python\\Python311\\Lib\\xmlrpc\\__init__.py',
   'PYMODULE'),
  ('gzip',
   'C:\\Users\\User\\AppData\\Local\\Programs\\Python\\Python311\\Lib\\gzip.py',
   'PYMODULE'),
  ('argparse',
   'C:\\Users\\User\\AppData\\Local\\Programs\\Python\\Python311\\Lib\\argparse.py',
   'PYMODULE'),
  ('textwrap',
   'C:\\Users\\User\\AppData\\Local\\Programs\\Python\\Python311\\Lib\\textwrap.py',
   'PYMODULE'),
  ('shutil',
   'C:\\Users\\User\\AppData\\Local\\Programs\\Python\\Python311\\Lib\\shutil.py',
   'PYMODULE'),
  ('zipfile',
   'C:\\Users\\User\\AppData\\Local\\Programs\\Python\\Python311\\Lib\\zipfile.py',
   'PYMODULE'),
  ('py_compile',
   'C:\\Users\\User\\AppData\\Local\\Programs\\Python\\Python311\\Lib\\py_compile.py',
   'PYMODULE'),
  ('importlib.machinery',
   'C:\\Users\\User\\AppData\\Local\\Programs\\Python\\Python311\\Lib\\importlib\\machinery.py',
   'PYMODULE'),
  ('importlib',
   'C:\\Users\\User\\AppData\\Local\\Programs\\Python\\Python311\\Lib\\importlib\\__init__.py',
   'PYMODULE'),
  ('importlib._bootstrap',
   'C:\\Users\\User\\AppData\\Local\\Programs\\Python\\Python311\\Lib\\importlib\\_bootstrap.py',
   'PYMODULE'),
  ('importlib._bootstrap_external',
   'C:\\Users\\User\\AppData\\Local\\Programs\\Python\\Python311\\Lib\\importlib\\_bootstrap_external.py',
   'PYMODULE'),
  ('importlib.metadata',
   'C:\\Users\\User\\AppData\\Local\\Programs\\Python\\Python311\\Lib\\importlib\\metadata\\__init__.py',
   'PYMODULE'),
  ('typing',
   'C:\\Users\\User\\AppData\\Local\\Programs\\Python\\Python311\\Lib\\typing.py',
   'PYMODULE'),
  ('importlib.abc',
   'C:\\Users\\User\\AppData\\Local\\Programs\\Python\\Python311\\Lib\\importlib\\abc.py',
   'PYMODULE'),
  ('importlib.resources.abc',
   'C:\\Users\\User\\AppData\\Local\\Programs\\Python\\Python311\\Lib\\importlib\\resources\\abc.py',
   'PYMODULE'),
  ('importlib.resources',
   'C:\\Users\\User\\AppData\\Local\\Programs\\Python\\Python311\\Lib\\importlib\\resources\\__init__.py',
   'PYMODULE'),
  ('importlib.resources._legacy',
   'C:\\Users\\User\\AppData\\Local\\Programs\\Python\\Python311\\Lib\\importlib\\resources\\_legacy.py',
   'PYMODULE'),
  ('importlib.resources._common',
   'C:\\Users\\User\\AppData\\Local\\Programs\\Python\\Python311\\Lib\\importlib\\resources\\_common.py',
   'PYMODULE'),
  ('importlib.resources._adapters',
   'C:\\Users\\User\\AppData\\Local\\Programs\\Python\\Python311\\Lib\\importlib\\resources\\_adapters.py',
   'PYMODULE'),
  ('importlib._abc',
   'C:\\Users\\User\\AppData\\Local\\Programs\\Python\\Python311\\Lib\\importlib\\_abc.py',
   'PYMODULE'),
  ('importlib.metadata._itertools',
   'C:\\Users\\User\\AppData\\Local\\Programs\\Python\\Python311\\Lib\\importlib\\metadata\\_itertools.py',
   'PYMODULE'),
  ('importlib.metadata._functools',
   'C:\\Users\\User\\AppData\\Local\\Programs\\Python\\Python311\\Lib\\importlib\\metadata\\_functools.py',
   'PYMODULE'),
  ('importlib.metadata._collections',
   'C:\\Users\\User\\AppData\\Local\\Programs\\Python\\Python311\\Lib\\importlib\\metadata\\_collections.py',
   'PYMODULE'),
  ('importlib.metadata._meta',
   'C:\\Users\\User\\AppData\\Local\\Programs\\Python\\Python311\\Lib\\importlib\\metadata\\_meta.py',
   'PYMODULE'),
  ('importlib.metadata._adapters',
   'C:\\Users\\User\\AppData\\Local\\Programs\\Python\\Python311\\Lib\\importlib\\metadata\\_adapters.py',
   'PYMODULE'),
  ('importlib.metadata._text',
   'C:\\Users\\User\\AppData\\Local\\Programs\\Python\\Python311\\Lib\\importlib\\metadata\\_text.py',
   'PYMODULE'),
  ('email.message',
   'C:\\Users\\User\\AppData\\Local\\Programs\\Python\\Python311\\Lib\\email\\message.py',
   'PYMODULE'),
  ('email.policy',
   'C:\\Users\\User\\AppData\\Local\\Programs\\Python\\Python311\\Lib\\email\\policy.py',
   'PYMODULE'),
  ('email.contentmanager',
   'C:\\Users\\User\\AppData\\Local\\Programs\\Python\\Python311\\Lib\\email\\contentmanager.py',
   'PYMODULE'),
  ('email.quoprimime',
   'C:\\Users\\User\\AppData\\Local\\Programs\\Python\\Python311\\Lib\\email\\quoprimime.py',
   'PYMODULE'),
  ('string',
   'C:\\Users\\User\\AppData\\Local\\Programs\\Python\\Python311\\Lib\\string.py',
   'PYMODULE'),
  ('email.headerregistry',
   'C:\\Users\\User\\AppData\\Local\\Programs\\Python\\Python311\\Lib\\email\\headerregistry.py',
   'PYMODULE'),
  ('email._header_value_parser',
   'C:\\Users\\User\\AppData\\Local\\Programs\\Python\\Python311\\Lib\\email\\_header_value_parser.py',
   'PYMODULE'),
  ('urllib',
   'C:\\Users\\User\\AppData\\Local\\Programs\\Python\\Python311\\Lib\\urllib\\__init__.py',
   'PYMODULE'),
  ('email.iterators',
   'C:\\Users\\User\\AppData\\Local\\Programs\\Python\\Python311\\Lib\\email\\iterators.py',
   'PYMODULE'),
  ('email.generator',
   'C:\\Users\\User\\AppData\\Local\\Programs\\Python\\Python311\\Lib\\email\\generator.py',
   'PYMODULE'),
  ('random',
   'C:\\Users\\User\\AppData\\Local\\Programs\\Python\\Python311\\Lib\\random.py',
   'PYMODULE'),
  ('statistics',
   'C:\\Users\\User\\AppData\\Local\\Programs\\Python\\Python311\\Lib\\statistics.py',
   'PYMODULE'),
  ('fractions',
   'C:\\Users\\User\\AppData\\Local\\Programs\\Python\\Python311\\Lib\\fractions.py',
   'PYMODULE'),
  ('numbers',
   'C:\\Users\\User\\AppData\\Local\\Programs\\Python\\Python311\\Lib\\numbers.py',
   'PYMODULE'),
  ('hashlib',
   'C:\\Users\\User\\AppData\\Local\\Programs\\Python\\Python311\\Lib\\hashlib.py',
   'PYMODULE'),
  ('logging',
   'C:\\Users\\User\\AppData\\Local\\Programs\\Python\\Python311\\Lib\\logging\\__init__.py',
   'PYMODULE'),
  ('pickle',
   'C:\\Users\\User\\AppData\\Local\\Programs\\Python\\Python311\\Lib\\pickle.py',
   'PYMODULE'),
  ('pprint',
   'C:\\Users\\User\\AppData\\Local\\Programs\\Python\\Python311\\Lib\\pprint.py',
   'PYMODULE'),
  ('dataclasses',
   'C:\\Users\\User\\AppData\\Local\\Programs\\Python\\Python311\\Lib\\dataclasses.py',
   'PYMODULE'),
  ('inspect',
   'C:\\Users\\User\\AppData\\Local\\Programs\\Python\\Python311\\Lib\\inspect.py',
   'PYMODULE'),
  ('token',
   'C:\\Users\\User\\AppData\\Local\\Programs\\Python\\Python311\\Lib\\token.py',
   'PYMODULE'),
  ('dis',
   'C:\\Users\\User\\AppData\\Local\\Programs\\Python\\Python311\\Lib\\dis.py',
   'PYMODULE'),
  ('opcode',
   'C:\\Users\\User\\AppData\\Local\\Programs\\Python\\Python311\\Lib\\opcode.py',
   'PYMODULE'),
  ('ast',
   'C:\\Users\\User\\AppData\\Local\\Programs\\Python\\Python311\\Lib\\ast.py',
   'PYMODULE'),
  ('_compat_pickle',
   'C:\\Users\\User\\AppData\\Local\\Programs\\Python\\Python311\\Lib\\_compat_pickle.py',
   'PYMODULE'),
  ('bisect',
   'C:\\Users\\User\\AppData\\Local\\Programs\\Python\\Python311\\Lib\\bisect.py',
   'PYMODULE'),
  ('email._encoded_words',
   'C:\\Users\\User\\AppData\\Local\\Programs\\Python\\Python311\\Lib\\email\\_encoded_words.py',
   'PYMODULE'),
  ('email.charset',
   'C:\\Users\\User\\AppData\\Local\\Programs\\Python\\Python311\\Lib\\email\\charset.py',
   'PYMODULE'),
  ('email.encoders',
   'C:\\Users\\User\\AppData\\Local\\Programs\\Python\\Python311\\Lib\\email\\encoders.py',
   'PYMODULE'),
  ('email.base64mime',
   'C:\\Users\\User\\AppData\\Local\\Programs\\Python\\Python311\\Lib\\email\\base64mime.py',
   'PYMODULE'),
  ('email._policybase',
   'C:\\Users\\User\\AppData\\Local\\Programs\\Python\\Python311\\Lib\\email\\_policybase.py',
   'PYMODULE'),
  ('email.header',
   'C:\\Users\\User\\AppData\\Local\\Programs\\Python\\Python311\\Lib\\email\\header.py',
   'PYMODULE'),
  ('email.errors',
   'C:\\Users\\User\\AppData\\Local\\Programs\\Python\\Python311\\Lib\\email\\errors.py',
   'PYMODULE'),
  ('email.utils',
   'C:\\Users\\User\\AppData\\Local\\Programs\\Python\\Python311\\Lib\\email\\utils.py',
   'PYMODULE'),
  ('email._parseaddr',
   'C:\\Users\\User\\AppData\\Local\\Programs\\Python\\Python311\\Lib\\email\\_parseaddr.py',
   'PYMODULE'),
  ('calendar',
   'C:\\Users\\User\\AppData\\Local\\Programs\\Python\\Python311\\Lib\\calendar.py',
   'PYMODULE'),
  ('quopri',
   'C:\\Users\\User\\AppData\\Local\\Programs\\Python\\Python311\\Lib\\quopri.py',
   'PYMODULE'),
  ('getopt',
   'C:\\Users\\User\\AppData\\Local\\Programs\\Python\\Python311\\Lib\\getopt.py',
   'PYMODULE'),
  ('email',
   'C:\\Users\\User\\AppData\\Local\\Programs\\Python\\Python311\\Lib\\email\\__init__.py',
   'PYMODULE'),
  ('email.parser',
   'C:\\Users\\User\\AppData\\Local\\Programs\\Python\\Python311\\Lib\\email\\parser.py',
   'PYMODULE'),
  ('email.feedparser',
   'C:\\Users\\User\\AppData\\Local\\Programs\\Python\\Python311\\Lib\\email\\feedparser.py',
   'PYMODULE'),
  ('csv',
   'C:\\Users\\User\\AppData\\Local\\Programs\\Python\\Python311\\Lib\\csv.py',
   'PYMODULE'),
  ('importlib.readers',
   'C:\\Users\\User\\AppData\\Local\\Programs\\Python\\Python311\\Lib\\importlib\\readers.py',
   'PYMODULE'),
  ('importlib.resources.readers',
   'C:\\Users\\User\\AppData\\Local\\Programs\\Python\\Python311\\Lib\\importlib\\resources\\readers.py',
   'PYMODULE'),
  ('importlib.resources._itertools',
   'C:\\Users\\User\\AppData\\Local\\Programs\\Python\\Python311\\Lib\\importlib\\resources\\_itertools.py',
   'PYMODULE'),
  ('tokenize',
   'C:\\Users\\User\\AppData\\Local\\Programs\\Python\\Python311\\Lib\\tokenize.py',
   'PYMODULE'),
  ('pathlib',
   'C:\\Users\\User\\AppData\\Local\\Programs\\Python\\Python311\\Lib\\pathlib.py',
   'PYMODULE'),
  ('contextlib',
   'C:\\Users\\User\\AppData\\Local\\Programs\\Python\\Python311\\Lib\\contextlib.py',
   'PYMODULE'),
  ('importlib.util',
   'C:\\Users\\User\\AppData\\Local\\Programs\\Python\\Python311\\Lib\\importlib\\util.py',
   'PYMODULE'),
  ('tarfile',
   'C:\\Users\\User\\AppData\\Local\\Programs\\Python\\Python311\\Lib\\tarfile.py',
   'PYMODULE'),
  ('lzma',
   'C:\\Users\\User\\AppData\\Local\\Programs\\Python\\Python311\\Lib\\lzma.py',
   'PYMODULE'),
  ('bz2',
   'C:\\Users\\User\\AppData\\Local\\Programs\\Python\\Python311\\Lib\\bz2.py',
   'PYMODULE'),
  ('fnmatch',
   'C:\\Users\\User\\AppData\\Local\\Programs\\Python\\Python311\\Lib\\fnmatch.py',
   'PYMODULE'),
  ('copy',
   'C:\\Users\\User\\AppData\\Local\\Programs\\Python\\Python311\\Lib\\copy.py',
   'PYMODULE'),
  ('gettext',
   'C:\\Users\\User\\AppData\\Local\\Programs\\Python\\Python311\\Lib\\gettext.py',
   'PYMODULE'),
  ('_compression',
   'C:\\Users\\User\\AppData\\Local\\Programs\\Python\\Python311\\Lib\\_compression.py',
   'PYMODULE'),
  ('xml.parsers.expat',
   'C:\\Users\\User\\AppData\\Local\\Programs\\Python\\Python311\\Lib\\xml\\parsers\\expat.py',
   'PYMODULE'),
  ('xml.parsers',
   'C:\\Users\\User\\AppData\\Local\\Programs\\Python\\Python311\\Lib\\xml\\parsers\\__init__.py',
   'PYMODULE'),
  ('xml',
   'C:\\Users\\User\\AppData\\Local\\Programs\\Python\\Python311\\Lib\\xml\\__init__.py',
   'PYMODULE'),
  ('xml.sax.expatreader',
   'C:\\Users\\User\\AppData\\Local\\Programs\\Python\\Python311\\Lib\\xml\\sax\\expatreader.py',
   'PYMODULE'),
  ('xml.sax.saxutils',
   'C:\\Users\\User\\AppData\\Local\\Programs\\Python\\Python311\\Lib\\xml\\sax\\saxutils.py',
   'PYMODULE'),
  ('urllib.request',
   'C:\\Users\\User\\AppData\\Local\\Programs\\Python\\Python311\\Lib\\urllib\\request.py',
   'PYMODULE'),
  ('getpass',
   'C:\\Users\\User\\AppData\\Local\\Programs\\Python\\Python311\\Lib\\getpass.py',
   'PYMODULE'),
  ('nturl2path',
   'C:\\Users\\User\\AppData\\Local\\Programs\\Python\\Python311\\Lib\\nturl2path.py',
   'PYMODULE'),
  ('ftplib',
   'C:\\Users\\User\\AppData\\Local\\Programs\\Python\\Python311\\Lib\\ftplib.py',
   'PYMODULE'),
  ('netrc',
   'C:\\Users\\User\\AppData\\Local\\Programs\\Python\\Python311\\Lib\\netrc.py',
   'PYMODULE'),
  ('shlex',
   'C:\\Users\\User\\AppData\\Local\\Programs\\Python\\Python311\\Lib\\shlex.py',
   'PYMODULE'),
  ('mimetypes',
   'C:\\Users\\User\\AppData\\Local\\Programs\\Python\\Python311\\Lib\\mimetypes.py',
   'PYMODULE'),
  ('http.cookiejar',
   'C:\\Users\\User\\AppData\\Local\\Programs\\Python\\Python311\\Lib\\http\\cookiejar.py',
   'PYMODULE'),
  ('http',
   'C:\\Users\\User\\AppData\\Local\\Programs\\Python\\Python311\\Lib\\http\\__init__.py',
   'PYMODULE'),
  ('ssl',
   'C:\\Users\\User\\AppData\\Local\\Programs\\Python\\Python311\\Lib\\ssl.py',
   'PYMODULE'),
  ('urllib.response',
   'C:\\Users\\User\\AppData\\Local\\Programs\\Python\\Python311\\Lib\\urllib\\response.py',
   'PYMODULE'),
  ('urllib.error',
   'C:\\Users\\User\\AppData\\Local\\Programs\\Python\\Python311\\Lib\\urllib\\error.py',
   'PYMODULE'),
  ('xml.sax',
   'C:\\Users\\User\\AppData\\Local\\Programs\\Python\\Python311\\Lib\\xml\\sax\\__init__.py',
   'PYMODULE'),
  ('xml.sax.handler',
   'C:\\Users\\User\\AppData\\Local\\Programs\\Python\\Python311\\Lib\\xml\\sax\\handler.py',
   'PYMODULE'),
  ('xml.sax._exceptions',
   'C:\\Users\\User\\AppData\\Local\\Programs\\Python\\Python311\\Lib\\xml\\sax\\_exceptions.py',
   'PYMODULE'),
  ('xml.sax.xmlreader',
   'C:\\Users\\User\\AppData\\Local\\Programs\\Python\\Python311\\Lib\\xml\\sax\\xmlreader.py',
   'PYMODULE'),
  ('urllib.parse',
   'C:\\Users\\User\\AppData\\Local\\Programs\\Python\\Python311\\Lib\\urllib\\parse.py',
   'PYMODULE'),
  ('ipaddress',
   'C:\\Users\\User\\AppData\\Local\\Programs\\Python\\Python311\\Lib\\ipaddress.py',
   'PYMODULE'),
  ('http.client',
   'C:\\Users\\User\\AppData\\Local\\Programs\\Python\\Python311\\Lib\\http\\client.py',
   'PYMODULE'),
  ('decimal',
   'C:\\Users\\User\\AppData\\Local\\Programs\\Python\\Python311\\Lib\\decimal.py',
   'PYMODULE'),
  ('_pydecimal',
   'C:\\Users\\User\\AppData\\Local\\Programs\\Python\\Python311\\Lib\\_pydecimal.py',
   'PYMODULE'),
  ('contextvars',
   'C:\\Users\\User\\AppData\\Local\\Programs\\Python\\Python311\\Lib\\contextvars.py',
   'PYMODULE'),
  ('datetime',
   'C:\\Users\\User\\AppData\\Local\\Programs\\Python\\Python311\\Lib\\datetime.py',
   'PYMODULE'),
  ('_strptime',
   'C:\\Users\\User\\AppData\\Local\\Programs\\Python\\Python311\\Lib\\_strptime.py',
   'PYMODULE'),
  ('base64',
   'C:\\Users\\User\\AppData\\Local\\Programs\\Python\\Python311\\Lib\\base64.py',
   'PYMODULE'),
  ('hmac',
   'C:\\Users\\User\\AppData\\Local\\Programs\\Python\\Python311\\Lib\\hmac.py',
   'PYMODULE'),
  ('tempfile',
   'C:\\Users\\User\\AppData\\Local\\Programs\\Python\\Python311\\Lib\\tempfile.py',
   'PYMODULE'),
  ('struct',
   'C:\\Users\\User\\AppData\\Local\\Programs\\Python\\Python311\\Lib\\struct.py',
   'PYMODULE'),
  ('multiprocessing.util',
   'C:\\Users\\User\\AppData\\Local\\Programs\\Python\\Python311\\Lib\\multiprocessing\\util.py',
   'PYMODULE'),
  ('multiprocessing.resource_tracker',
   'C:\\Users\\User\\AppData\\Local\\Programs\\Python\\Python311\\Lib\\multiprocessing\\resource_tracker.py',
   'PYMODULE'),
  ('multiprocessing.popen_fork',
   'C:\\Users\\User\\AppData\\Local\\Programs\\Python\\Python311\\Lib\\multiprocessing\\popen_fork.py',
   'PYMODULE'),
  ('multiprocessing.forkserver',
   'C:\\Users\\User\\AppData\\Local\\Programs\\Python\\Python311\\Lib\\multiprocessing\\forkserver.py',
   'PYMODULE'),
  ('multiprocessing.context',
   'C:\\Users\\User\\AppData\\Local\\Programs\\Python\\Python311\\Lib\\multiprocessing\\context.py',
   'PYMODULE'),
  ('multiprocessing.sharedctypes',
   'C:\\Users\\User\\AppData\\Local\\Programs\\Python\\Python311\\Lib\\multiprocessing\\sharedctypes.py',
   'PYMODULE'),
  ('multiprocessing.heap',
   'C:\\Users\\User\\AppData\\Local\\Programs\\Python\\Python311\\Lib\\multiprocessing\\heap.py',
   'PYMODULE'),
  ('ctypes',
   'C:\\Users\\User\\AppData\\Local\\Programs\\Python\\Python311\\Lib\\ctypes\\__init__.py',
   'PYMODULE'),
  ('ctypes._endian',
   'C:\\Users\\User\\AppData\\Local\\Programs\\Python\\Python311\\Lib\\ctypes\\_endian.py',
   'PYMODULE'),
  ('multiprocessing.pool',
   'C:\\Users\\User\\AppData\\Local\\Programs\\Python\\Python311\\Lib\\multiprocessing\\pool.py',
   'PYMODULE'),
  ('multiprocessing.dummy',
   'C:\\Users\\User\\AppData\\Local\\Programs\\Python\\Python311\\Lib\\multiprocessing\\dummy\\__init__.py',
   'PYMODULE'),
  ('multiprocessing.dummy.connection',
   'C:\\Users\\User\\AppData\\Local\\Programs\\Python\\Python311\\Lib\\multiprocessing\\dummy\\connection.py',
   'PYMODULE'),
  ('queue',
   'C:\\Users\\User\\AppData\\Local\\Programs\\Python\\Python311\\Lib\\queue.py',
   'PYMODULE'),
  ('multiprocessing.queues',
   'C:\\Users\\User\\AppData\\Local\\Programs\\Python\\Python311\\Lib\\multiprocessing\\queues.py',
   'PYMODULE'),
  ('multiprocessing.synchronize',
   'C:\\Users\\User\\AppData\\Local\\Programs\\Python\\Python311\\Lib\\multiprocessing\\synchronize.py',
   'PYMODULE'),
  ('multiprocessing.managers',
   'C:\\Users\\User\\AppData\\Local\\Programs\\Python\\Python311\\Lib\\multiprocessing\\managers.py',
   'PYMODULE'),
  ('multiprocessing.shared_memory',
   'C:\\Users\\User\\AppData\\Local\\Programs\\Python\\Python311\\Lib\\multiprocessing\\shared_memory.py',
   'PYMODULE'),
  ('secrets',
   'C:\\Users\\User\\AppData\\Local\\Programs\\Python\\Python311\\Lib\\secrets.py',
   'PYMODULE'),
  ('multiprocessing.reduction',
   'C:\\Users\\User\\AppData\\Local\\Programs\\Python\\Python311\\Lib\\multiprocessing\\reduction.py',
   'PYMODULE'),
  ('multiprocessing.popen_spawn_posix',
   'C:\\Users\\User\\AppData\\Local\\Programs\\Python\\Python311\\Lib\\multiprocessing\\popen_spawn_posix.py',
   'PYMODULE'),
  ('multiprocessing.popen_spawn_win32',
   'C:\\Users\\User\\AppData\\Local\\Programs\\Python\\Python311\\Lib\\multiprocessing\\popen_spawn_win32.py',
   'PYMODULE'),
  ('subprocess',
   'C:\\Users\\User\\AppData\\Local\\Programs\\Python\\Python311\\Lib\\subprocess.py',
   'PYMODULE'),
  ('multiprocessing.spawn',
   'C:\\Users\\User\\AppData\\Local\\Programs\\Python\\Python311\\Lib\\multiprocessing\\spawn.py',
   'PYMODULE'),
  ('runpy',
   'C:\\Users\\User\\AppData\\Local\\Programs\\Python\\Python311\\Lib\\runpy.py',
   'PYMODULE'),
  ('pkgutil',
   'C:\\Users\\User\\AppData\\Local\\Programs\\Python\\Python311\\Lib\\pkgutil.py',
   'PYMODULE'),
  ('zipimport',
   'C:\\Users\\User\\AppData\\Local\\Programs\\Python\\Python311\\Lib\\zipimport.py',
   'PYMODULE'),
  ('multiprocessing',
   'C:\\Users\\User\\AppData\\Local\\Programs\\Python\\Python311\\Lib\\multiprocessing\\__init__.py',
   'PYMODULE'),
  ('threading',
   'C:\\Users\\User\\AppData\\Local\\Programs\\Python\\Python311\\Lib\\threading.py',
   'PYMODULE'),
  ('_threading_local',
   'C:\\Users\\User\\AppData\\Local\\Programs\\Python\\Python311\\Lib\\_threading_local.py',
   'PYMODULE'),
  ('_pyi_rth_utils',
   'C:\\Users\\User\\Desktop\\projects\\trivia-project\\Proxy '
   'Server\\venv\\Lib\\site-packages\\PyInstaller\\fake-modules\\_pyi_rth_utils\\__init__.py',
   'PYMODULE'),
  ('stringprep',
   'C:\\Users\\User\\AppData\\Local\\Programs\\Python\\Python311\\Lib\\stringprep.py',
   'PYMODULE'),
  ('tracemalloc',
   'C:\\Users\\User\\AppData\\Local\\Programs\\Python\\Python311\\Lib\\tracemalloc.py',
   'PYMODULE'),
  ('_py_abc',
   'C:\\Users\\User\\AppData\\Local\\Programs\\Python\\Python311\\Lib\\_py_abc.py',
   'PYMODULE'),
  ('socket',
   'C:\\Users\\User\\AppData\\Local\\Programs\\Python\\Python311\\Lib\\socket.py',
   'PYMODULE'),
  ('websockets',
   'C:\\Users\\User\\Desktop\\projects\\trivia-project\\Proxy '
   'Server\\venv\\Lib\\site-packages\\websockets\\__init__.py',
   'PYMODULE'),
  ('websockets.utils',
   'C:\\Users\\User\\Desktop\\projects\\trivia-project\\Proxy '
   'Server\\venv\\Lib\\site-packages\\websockets\\utils.py',
   'PYMODULE'),
  ('websockets.uri',
   'C:\\Users\\User\\Desktop\\projects\\trivia-project\\Proxy '
   'Server\\venv\\Lib\\site-packages\\websockets\\uri.py',
   'PYMODULE'),
  ('websockets.sync.utils',
   'C:\\Users\\User\\Desktop\\projects\\trivia-project\\Proxy '
   'Server\\venv\\Lib\\site-packages\\websockets\\sync\\utils.py',
   'PYMODULE'),
  ('websockets.sync.server',
   'C:\\Users\\User\\Desktop\\projects\\trivia-project\\Proxy '
   'Server\\venv\\Lib\\site-packages\\websockets\\sync\\server.py',
   'PYMODULE'),
  ('websockets.sync.messages',
   'C:\\Users\\User\\Desktop\\projects\\trivia-project\\Proxy '
   'Server\\venv\\Lib\\site-packages\\websockets\\sync\\messages.py',
   'PYMODULE'),
  ('websockets.sync.connection',
   'C:\\Users\\User\\Desktop\\projects\\trivia-project\\Proxy '
   'Server\\venv\\Lib\\site-packages\\websockets\\sync\\connection.py',
   'PYMODULE'),
  ('uuid',
   'C:\\Users\\User\\AppData\\Local\\Programs\\Python\\Python311\\Lib\\uuid.py',
   'PYMODULE'),
  ('platform',
   'C:\\Users\\User\\AppData\\Local\\Programs\\Python\\Python311\\Lib\\platform.py',
   'PYMODULE'),
  ('websockets.sync.client',
   'C:\\Users\\User\\Desktop\\projects\\trivia-project\\Proxy '
   'Server\\venv\\Lib\\site-packages\\websockets\\sync\\client.py',
   'PYMODULE'),
  ('websockets.sync',
   'C:\\Users\\User\\Desktop\\projects\\trivia-project\\Proxy '
   'Server\\venv\\Lib\\site-packages\\websockets\\sync\\__init__.py',
   'PYMODULE'),
  ('websockets.streams',
   'C:\\Users\\User\\Desktop\\projects\\trivia-project\\Proxy '
   'Server\\venv\\Lib\\site-packages\\websockets\\streams.py',
   'PYMODULE'),
  ('websockets.protocol',
   'C:\\Users\\User\\Desktop\\projects\\trivia-project\\Proxy '
   'Server\\venv\\Lib\\site-packages\\websockets\\protocol.py',
   'PYMODULE'),
  ('websockets.legacy.http',
   'C:\\Users\\User\\Desktop\\projects\\trivia-project\\Proxy '
   'Server\\venv\\Lib\\site-packages\\websockets\\legacy\\http.py',
   'PYMODULE'),
  ('websockets.legacy.handshake',
   'C:\\Users\\User\\Desktop\\projects\\trivia-project\\Proxy '
   'Server\\venv\\Lib\\site-packages\\websockets\\legacy\\handshake.py',
   'PYMODULE'),
  ('websockets.legacy.framing',
   'C:\\Users\\User\\Desktop\\projects\\trivia-project\\Proxy '
   'Server\\venv\\Lib\\site-packages\\websockets\\legacy\\framing.py',
   'PYMODULE'),
  ('websockets.legacy.compatibility',
   'C:\\Users\\User\\Desktop\\projects\\trivia-project\\Proxy '
   'Server\\venv\\Lib\\site-packages\\websockets\\legacy\\compatibility.py',
   'PYMODULE'),
  ('websockets.legacy.async_timeout',
   'C:\\Users\\User\\Desktop\\projects\\trivia-project\\Proxy '
   'Server\\venv\\Lib\\site-packages\\websockets\\legacy\\async_timeout.py',
   'PYMODULE'),
  ('websockets.legacy',
   'C:\\Users\\User\\Desktop\\projects\\trivia-project\\Proxy '
   'Server\\venv\\Lib\\site-packages\\websockets\\legacy\\__init__.py',
   'PYMODULE'),
  ('websockets.http',
   'C:\\Users\\User\\Desktop\\projects\\trivia-project\\Proxy '
   'Server\\venv\\Lib\\site-packages\\websockets\\http.py',
   'PYMODULE'),
  ('websockets.headers',
   'C:\\Users\\User\\Desktop\\projects\\trivia-project\\Proxy '
   'Server\\venv\\Lib\\site-packages\\websockets\\headers.py',
   'PYMODULE'),
  ('websockets.extensions.permessage_deflate',
   'C:\\Users\\User\\Desktop\\projects\\trivia-project\\Proxy '
   'Server\\venv\\Lib\\site-packages\\websockets\\extensions\\permessage_deflate.py',
   'PYMODULE'),
  ('websockets.extensions.base',
   'C:\\Users\\User\\Desktop\\projects\\trivia-project\\Proxy '
   'Server\\venv\\Lib\\site-packages\\websockets\\extensions\\base.py',
   'PYMODULE'),
  ('websockets.connection',
   'C:\\Users\\User\\Desktop\\projects\\trivia-project\\Proxy '
   'Server\\venv\\Lib\\site-packages\\websockets\\connection.py',
   'PYMODULE'),
  ('websockets.auth',
   'C:\\Users\\User\\Desktop\\projects\\trivia-project\\Proxy '
   'Server\\venv\\Lib\\site-packages\\websockets\\auth.py',
   'PYMODULE'),
  ('websockets.__main__',
   'C:\\Users\\User\\Desktop\\projects\\trivia-project\\Proxy '
   'Server\\venv\\Lib\\site-packages\\websockets\\__main__.py',
   'PYMODULE'),
  ('websockets.typing',
   'C:\\Users\\User\\Desktop\\projects\\trivia-project\\Proxy '
   'Server\\venv\\Lib\\site-packages\\websockets\\typing.py',
   'PYMODULE'),
  ('websockets.server',
   'C:\\Users\\User\\Desktop\\projects\\trivia-project\\Proxy '
   'Server\\venv\\Lib\\site-packages\\websockets\\server.py',
   'PYMODULE'),
  ('websockets.legacy.server',
   'C:\\Users\\User\\Desktop\\projects\\trivia-project\\Proxy '
   'Server\\venv\\Lib\\site-packages\\websockets\\legacy\\server.py',
   'PYMODULE'),
  ('websockets.legacy.protocol',
   'C:\\Users\\User\\Desktop\\projects\\trivia-project\\Proxy '
   'Server\\venv\\Lib\\site-packages\\websockets\\legacy\\protocol.py',
   'PYMODULE'),
  ('websockets.legacy.client',
   'C:\\Users\\User\\Desktop\\projects\\trivia-project\\Proxy '
   'Server\\venv\\Lib\\site-packages\\websockets\\legacy\\client.py',
   'PYMODULE'),
  ('websockets.legacy.auth',
   'C:\\Users\\User\\Desktop\\projects\\trivia-project\\Proxy '
   'Server\\venv\\Lib\\site-packages\\websockets\\legacy\\auth.py',
   'PYMODULE'),
  ('websockets.datastructures',
   'C:\\Users\\User\\Desktop\\projects\\trivia-project\\Proxy '
   'Server\\venv\\Lib\\site-packages\\websockets\\datastructures.py',
   'PYMODULE'),
  ('websockets.client',
   'C:\\Users\\User\\Desktop\\projects\\trivia-project\\Proxy '
   'Server\\venv\\Lib\\site-packages\\websockets\\client.py',
   'PYMODULE'),
  ('websockets.http11',
   'C:\\Users\\User\\Desktop\\projects\\trivia-project\\Proxy '
   'Server\\venv\\Lib\\site-packages\\websockets\\http11.py',
   'PYMODULE'),
  ('websockets.extensions',
   'C:\\Users\\User\\Desktop\\projects\\trivia-project\\Proxy '
   'Server\\venv\\Lib\\site-packages\\websockets\\extensions\\__init__.py',
   'PYMODULE'),
  ('websockets.frames',
   'C:\\Users\\User\\Desktop\\projects\\trivia-project\\Proxy '
   'Server\\venv\\Lib\\site-packages\\websockets\\frames.py',
   'PYMODULE'),
  ('websockets.exceptions',
   'C:\\Users\\User\\Desktop\\projects\\trivia-project\\Proxy '
   'Server\\venv\\Lib\\site-packages\\websockets\\exceptions.py',
   'PYMODULE'),
  ('websockets.version',
   'C:\\Users\\User\\Desktop\\projects\\trivia-project\\Proxy '
   'Server\\venv\\Lib\\site-packages\\websockets\\version.py',
   'PYMODULE'),
  ('websockets.imports',
   'C:\\Users\\User\\Desktop\\projects\\trivia-project\\Proxy '
   'Server\\venv\\Lib\\site-packages\\websockets\\imports.py',
   'PYMODULE'),
  ('__future__',
   'C:\\Users\\User\\AppData\\Local\\Programs\\Python\\Python311\\Lib\\__future__.py',
   'PYMODULE'),
  ('asyncio',
   'C:\\Users\\User\\AppData\\Local\\Programs\\Python\\Python311\\Lib\\asyncio\\__init__.py',
   'PYMODULE'),
  ('asyncio.unix_events',
   'C:\\Users\\User\\AppData\\Local\\Programs\\Python\\Python311\\Lib\\asyncio\\unix_events.py',
   'PYMODULE'),
  ('asyncio.log',
   'C:\\Users\\User\\AppData\\Local\\Programs\\Python\\Python311\\Lib\\asyncio\\log.py',
   'PYMODULE'),
  ('asyncio.windows_events',
   'C:\\Users\\User\\AppData\\Local\\Programs\\Python\\Python311\\Lib\\asyncio\\windows_events.py',
   'PYMODULE'),
  ('asyncio.windows_utils',
   'C:\\Users\\User\\AppData\\Local\\Programs\\Python\\Python311\\Lib\\asyncio\\windows_utils.py',
   'PYMODULE'),
  ('asyncio.selector_events',
   'C:\\Users\\User\\AppData\\Local\\Programs\\Python\\Python311\\Lib\\asyncio\\selector_events.py',
   'PYMODULE'),
  ('asyncio.proactor_events',
   'C:\\Users\\User\\AppData\\Local\\Programs\\Python\\Python311\\Lib\\asyncio\\proactor_events.py',
   'PYMODULE'),
  ('asyncio.base_subprocess',
   'C:\\Users\\User\\AppData\\Local\\Programs\\Python\\Python311\\Lib\\asyncio\\base_subprocess.py',
   'PYMODULE'),
  ('asyncio.threads',
   'C:\\Users\\User\\AppData\\Local\\Programs\\Python\\Python311\\Lib\\asyncio\\threads.py',
   'PYMODULE'),
  ('asyncio.timeouts',
   'C:\\Users\\User\\AppData\\Local\\Programs\\Python\\Python311\\Lib\\asyncio\\timeouts.py',
   'PYMODULE'),
  ('asyncio.taskgroups',
   'C:\\Users\\User\\AppData\\Local\\Programs\\Python\\Python311\\Lib\\asyncio\\taskgroups.py',
   'PYMODULE'),
  ('asyncio.subprocess',
   'C:\\Users\\User\\AppData\\Local\\Programs\\Python\\Python311\\Lib\\asyncio\\subprocess.py',
   'PYMODULE'),
  ('asyncio.streams',
   'C:\\Users\\User\\AppData\\Local\\Programs\\Python\\Python311\\Lib\\asyncio\\streams.py',
   'PYMODULE'),
  ('asyncio.queues',
   'C:\\Users\\User\\AppData\\Local\\Programs\\Python\\Python311\\Lib\\asyncio\\queues.py',
   'PYMODULE'),
  ('asyncio.runners',
   'C:\\Users\\User\\AppData\\Local\\Programs\\Python\\Python311\\Lib\\asyncio\\runners.py',
   'PYMODULE'),
  ('asyncio.base_events',
   'C:\\Users\\User\\AppData\\Local\\Programs\\Python\\Python311\\Lib\\asyncio\\base_events.py',
   'PYMODULE'),
  ('concurrent.futures',
   'C:\\Users\\User\\AppData\\Local\\Programs\\Python\\Python311\\Lib\\concurrent\\futures\\__init__.py',
   'PYMODULE'),
  ('concurrent.futures.thread',
   'C:\\Users\\User\\AppData\\Local\\Programs\\Python\\Python311\\Lib\\concurrent\\futures\\thread.py',
   'PYMODULE'),
  ('concurrent.futures.process',
   'C:\\Users\\User\\AppData\\Local\\Programs\\Python\\Python311\\Lib\\concurrent\\futures\\process.py',
   'PYMODULE'),
  ('concurrent.futures._base',
   'C:\\Users\\User\\AppData\\Local\\Programs\\Python\\Python311\\Lib\\concurrent\\futures\\_base.py',
   'PYMODULE'),
  ('concurrent',
   'C:\\Users\\User\\AppData\\Local\\Programs\\Python\\Python311\\Lib\\concurrent\\__init__.py',
   'PYMODULE'),
  ('asyncio.trsock',
   'C:\\Users\\User\\AppData\\Local\\Programs\\Python\\Python311\\Lib\\asyncio\\trsock.py',
   'PYMODULE'),
  ('asyncio.staggered',
   'C:\\Users\\User\\AppData\\Local\\Programs\\Python\\Python311\\Lib\\asyncio\\staggered.py',
   'PYMODULE'),
  ('asyncio.tasks',
   'C:\\Users\\User\\AppData\\Local\\Programs\\Python\\Python311\\Lib\\asyncio\\tasks.py',
   'PYMODULE'),
  ('asyncio.locks',
   'C:\\Users\\User\\AppData\\Local\\Programs\\Python\\Python311\\Lib\\asyncio\\locks.py',
   'PYMODULE'),
  ('asyncio.base_tasks',
   'C:\\Users\\User\\AppData\\Local\\Programs\\Python\\Python311\\Lib\\asyncio\\base_tasks.py',
   'PYMODULE'),
  ('asyncio.mixins',
   'C:\\Users\\User\\AppData\\Local\\Programs\\Python\\Python311\\Lib\\asyncio\\mixins.py',
   'PYMODULE'),
  ('asyncio.sslproto',
   'C:\\Users\\User\\AppData\\Local\\Programs\\Python\\Python311\\Lib\\asyncio\\sslproto.py',
   'PYMODULE'),
  ('asyncio.transports',
   'C:\\Users\\User\\AppData\\Local\\Programs\\Python\\Python311\\Lib\\asyncio\\transports.py',
   'PYMODULE'),
  ('asyncio.protocols',
   'C:\\Users\\User\\AppData\\Local\\Programs\\Python\\Python311\\Lib\\asyncio\\protocols.py',
   'PYMODULE'),
  ('asyncio.futures',
   'C:\\Users\\User\\AppData\\Local\\Programs\\Python\\Python311\\Lib\\asyncio\\futures.py',
   'PYMODULE'),
  ('asyncio.base_futures',
   'C:\\Users\\User\\AppData\\Local\\Programs\\Python\\Python311\\Lib\\asyncio\\base_futures.py',
   'PYMODULE'),
  ('asyncio.exceptions',
   'C:\\Users\\User\\AppData\\Local\\Programs\\Python\\Python311\\Lib\\asyncio\\exceptions.py',
   'PYMODULE'),
  ('asyncio.events',
   'C:\\Users\\User\\AppData\\Local\\Programs\\Python\\Python311\\Lib\\asyncio\\events.py',
   'PYMODULE'),
  ('asyncio.format_helpers',
   'C:\\Users\\User\\AppData\\Local\\Programs\\Python\\Python311\\Lib\\asyncio\\format_helpers.py',
   'PYMODULE'),
  ('asyncio.coroutines',
   'C:\\Users\\User\\AppData\\Local\\Programs\\Python\\Python311\\Lib\\asyncio\\coroutines.py',
   'PYMODULE'),
  ('asyncio.constants',
   'C:\\Users\\User\\AppData\\Local\\Programs\\Python\\Python311\\Lib\\asyncio\\constants.py',
   'PYMODULE')],
 [('python311.dll',
   'C:\\Users\\User\\AppData\\Local\\Programs\\Python\\Python311\\python311.dll',
   'BINARY'),
  ('select.pyd',
   'C:\\Users\\User\\AppData\\Local\\Programs\\Python\\Python311\\DLLs\\select.pyd',
   'EXTENSION'),
  ('_hashlib.pyd',
   'C:\\Users\\User\\AppData\\Local\\Programs\\Python\\Python311\\DLLs\\_hashlib.pyd',
   'EXTENSION'),
  ('_lzma.pyd',
   'C:\\Users\\User\\AppData\\Local\\Programs\\Python\\Python311\\DLLs\\_lzma.pyd',
   'EXTENSION'),
  ('_bz2.pyd',
   'C:\\Users\\User\\AppData\\Local\\Programs\\Python\\Python311\\DLLs\\_bz2.pyd',
   'EXTENSION'),
  ('pyexpat.pyd',
   'C:\\Users\\User\\AppData\\Local\\Programs\\Python\\Python311\\DLLs\\pyexpat.pyd',
   'EXTENSION'),
  ('_ssl.pyd',
   'C:\\Users\\User\\AppData\\Local\\Programs\\Python\\Python311\\DLLs\\_ssl.pyd',
   'EXTENSION'),
  ('unicodedata.pyd',
   'C:\\Users\\User\\AppData\\Local\\Programs\\Python\\Python311\\DLLs\\unicodedata.pyd',
   'EXTENSION'),
  ('_decimal.pyd',
   'C:\\Users\\User\\AppData\\Local\\Programs\\Python\\Python311\\DLLs\\_decimal.pyd',
   'EXTENSION'),
  ('_multiprocessing.pyd',
   'C:\\Users\\User\\AppData\\Local\\Programs\\Python\\Python311\\DLLs\\_multiprocessing.pyd',
   'EXTENSION'),
  ('_ctypes.pyd',
   'C:\\Users\\User\\AppData\\Local\\Programs\\Python\\Python311\\DLLs\\_ctypes.pyd',
   'EXTENSION'),
  ('_queue.pyd',
   'C:\\Users\\User\\AppData\\Local\\Programs\\Python\\Python311\\DLLs\\_queue.pyd',
   'EXTENSION'),
  ('_socket.pyd',
   'C:\\Users\\User\\AppData\\Local\\Programs\\Python\\Python311\\DLLs\\_socket.pyd',
   'EXTENSION'),
  ('_uuid.pyd',
   'C:\\Users\\User\\AppData\\Local\\Programs\\Python\\Python311\\DLLs\\_uuid.pyd',
   'EXTENSION'),
  ('websockets\\speedups.cp311-win_amd64.pyd',
   'C:\\Users\\User\\Desktop\\projects\\trivia-project\\Proxy '
   'Server\\venv\\Lib\\site-packages\\websockets\\speedups.cp311-win_amd64.pyd',
   'EXTENSION'),
  ('_overlapped.pyd',
   'C:\\Users\\User\\AppData\\Local\\Programs\\Python\\Python311\\DLLs\\_overlapped.pyd',
   'EXTENSION'),
  ('_asyncio.pyd',
   'C:\\Users\\User\\AppData\\Local\\Programs\\Python\\Python311\\DLLs\\_asyncio.pyd',
   'EXTENSION'),
  ('api-ms-win-crt-heap-l1-1-0.dll',
   'C:\\Program '
   'Files\\Microsoft\\jdk-11.0.16.101-hotspot\\bin\\api-ms-win-crt-heap-l1-1-0.dll',
   'BINARY'),
  ('api-ms-win-crt-runtime-l1-1-0.dll',
   'C:\\Program '
   'Files\\Microsoft\\jdk-11.0.16.101-hotspot\\bin\\api-ms-win-crt-runtime-l1-1-0.dll',
   'BINARY'),
  ('api-ms-win-crt-environment-l1-1-0.dll',
   'C:\\Program '
   'Files\\Microsoft\\jdk-11.0.16.101-hotspot\\bin\\api-ms-win-crt-environment-l1-1-0.dll',
   'BINARY'),
  ('api-ms-win-crt-math-l1-1-0.dll',
   'C:\\Program '
   'Files\\Microsoft\\jdk-11.0.16.101-hotspot\\bin\\api-ms-win-crt-math-l1-1-0.dll',
   'BINARY'),
  ('api-ms-win-crt-conio-l1-1-0.dll',
   'C:\\Program '
   'Files\\Microsoft\\jdk-11.0.16.101-hotspot\\bin\\api-ms-win-crt-conio-l1-1-0.dll',
   'BINARY'),
  ('VCRUNTIME140.dll',
   'C:\\Users\\User\\AppData\\Local\\Programs\\Python\\Python311\\VCRUNTIME140.dll',
   'BINARY'),
  ('api-ms-win-crt-locale-l1-1-0.dll',
   'C:\\Program '
   'Files\\Microsoft\\jdk-11.0.16.101-hotspot\\bin\\api-ms-win-crt-locale-l1-1-0.dll',
   'BINARY'),
  ('api-ms-win-crt-stdio-l1-1-0.dll',
   'C:\\Program '
   'Files\\Microsoft\\jdk-11.0.16.101-hotspot\\bin\\api-ms-win-crt-stdio-l1-1-0.dll',
   'BINARY'),
  ('api-ms-win-crt-process-l1-1-0.dll',
   'C:\\Program '
   'Files\\Microsoft\\jdk-11.0.16.101-hotspot\\bin\\api-ms-win-crt-process-l1-1-0.dll',
   'BINARY'),
  ('api-ms-win-crt-string-l1-1-0.dll',
   'C:\\Program '
   'Files\\Microsoft\\jdk-11.0.16.101-hotspot\\bin\\api-ms-win-crt-string-l1-1-0.dll',
   'BINARY'),
  ('api-ms-win-crt-time-l1-1-0.dll',
   'C:\\Program '
   'Files\\Microsoft\\jdk-11.0.16.101-hotspot\\bin\\api-ms-win-crt-time-l1-1-0.dll',
   'BINARY'),
  ('api-ms-win-crt-convert-l1-1-0.dll',
   'C:\\Program '
   'Files\\Microsoft\\jdk-11.0.16.101-hotspot\\bin\\api-ms-win-crt-convert-l1-1-0.dll',
   'BINARY'),
  ('api-ms-win-crt-filesystem-l1-1-0.dll',
   'C:\\Program '
   'Files\\Microsoft\\jdk-11.0.16.101-hotspot\\bin\\api-ms-win-crt-filesystem-l1-1-0.dll',
   'BINARY'),
  ('libcrypto-3.dll',
   'C:\\Users\\User\\AppData\\Local\\Programs\\Python\\Python311\\DLLs\\libcrypto-3.dll',
   'BINARY'),
  ('api-ms-win-crt-utility-l1-1-0.dll',
   'C:\\Program '
   'Files\\Microsoft\\jdk-11.0.16.101-hotspot\\bin\\api-ms-win-crt-utility-l1-1-0.dll',
   'BINARY'),
  ('libssl-3.dll',
   'C:\\Users\\User\\AppData\\Local\\Programs\\Python\\Python311\\DLLs\\libssl-3.dll',
   'BINARY'),
  ('libffi-8.dll',
   'C:\\Users\\User\\AppData\\Local\\Programs\\Python\\Python311\\DLLs\\libffi-8.dll',
   'BINARY'),
  ('ucrtbase.dll',
   'C:\\Program Files\\Microsoft\\jdk-11.0.16.101-hotspot\\bin\\ucrtbase.dll',
   'BINARY'),
  ('api-ms-win-core-errorhandling-l1-1-0.dll',
   'C:\\Program '
   'Files\\Microsoft\\jdk-11.0.16.101-hotspot\\bin\\api-ms-win-core-errorhandling-l1-1-0.dll',
   'BINARY'),
  ('api-ms-win-core-file-l2-1-0.dll',
   'C:\\Program '
   'Files\\Microsoft\\jdk-11.0.16.101-hotspot\\bin\\api-ms-win-core-file-l2-1-0.dll',
   'BINARY'),
  ('api-ms-win-core-interlocked-l1-1-0.dll',
   'C:\\Program '
   'Files\\Microsoft\\jdk-11.0.16.101-hotspot\\bin\\api-ms-win-core-interlocked-l1-1-0.dll',
   'BINARY'),
  ('api-ms-win-core-processthreads-l1-1-1.dll',
   'C:\\Program '
   'Files\\Microsoft\\jdk-11.0.16.101-hotspot\\bin\\api-ms-win-core-processthreads-l1-1-1.dll',
   'BINARY'),
  ('api-ms-win-core-timezone-l1-1-0.dll',
   'C:\\Program '
   'Files\\Microsoft\\jdk-11.0.16.101-hotspot\\bin\\api-ms-win-core-timezone-l1-1-0.dll',
   'BINARY'),
  ('api-ms-win-core-synch-l1-1-0.dll',
   'C:\\Program '
   'Files\\Microsoft\\jdk-11.0.16.101-hotspot\\bin\\api-ms-win-core-synch-l1-1-0.dll',
   'BINARY'),
  ('api-ms-win-core-heap-l1-1-0.dll',
   'C:\\Program '
   'Files\\Microsoft\\jdk-11.0.16.101-hotspot\\bin\\api-ms-win-core-heap-l1-1-0.dll',
   'BINARY'),
  ('api-ms-win-core-datetime-l1-1-0.dll',
   'C:\\Program '
   'Files\\Microsoft\\jdk-11.0.16.101-hotspot\\bin\\api-ms-win-core-datetime-l1-1-0.dll',
   'BINARY'),
  ('api-ms-win-core-sysinfo-l1-1-0.dll',
   'C:\\Program '
   'Files\\Microsoft\\jdk-11.0.16.101-hotspot\\bin\\api-ms-win-core-sysinfo-l1-1-0.dll',
   'BINARY'),
  ('api-ms-win-core-processenvironment-l1-1-0.dll',
   'C:\\Program '
   'Files\\Microsoft\\jdk-11.0.16.101-hotspot\\bin\\api-ms-win-core-processenvironment-l1-1-0.dll',
   'BINARY'),
  ('api-ms-win-core-util-l1-1-0.dll',
   'C:\\Program '
   'Files\\Microsoft\\jdk-11.0.16.101-hotspot\\bin\\api-ms-win-core-util-l1-1-0.dll',
   'BINARY'),
  ('api-ms-win-core-memory-l1-1-0.dll',
   'C:\\Program '
   'Files\\Microsoft\\jdk-11.0.16.101-hotspot\\bin\\api-ms-win-core-memory-l1-1-0.dll',
   'BINARY'),
  ('api-ms-win-core-handle-l1-1-0.dll',
   'C:\\Program '
   'Files\\Microsoft\\jdk-11.0.16.101-hotspot\\bin\\api-ms-win-core-handle-l1-1-0.dll',
   'BINARY'),
  ('api-ms-win-core-rtlsupport-l1-1-0.dll',
   'C:\\Program '
   'Files\\Microsoft\\jdk-11.0.16.101-hotspot\\bin\\api-ms-win-core-rtlsupport-l1-1-0.dll',
   'BINARY'),
  ('api-ms-win-core-libraryloader-l1-1-0.dll',
   'C:\\Program '
   'Files\\Microsoft\\jdk-11.0.16.101-hotspot\\bin\\api-ms-win-core-libraryloader-l1-1-0.dll',
   'BINARY'),
  ('api-ms-win-core-string-l1-1-0.dll',
   'C:\\Program '
   'Files\\Microsoft\\jdk-11.0.16.101-hotspot\\bin\\api-ms-win-core-string-l1-1-0.dll',
   'BINARY'),
  ('api-ms-win-core-console-l1-1-0.dll',
   'C:\\Program '
   'Files\\Microsoft\\jdk-11.0.16.101-hotspot\\bin\\api-ms-win-core-console-l1-1-0.dll',
   'BINARY'),
  ('api-ms-win-core-file-l1-1-0.dll',
   'C:\\Program '
   'Files\\Microsoft\\jdk-11.0.16.101-hotspot\\bin\\api-ms-win-core-file-l1-1-0.dll',
   'BINARY'),
  ('api-ms-win-core-profile-l1-1-0.dll',
   'C:\\Program '
   'Files\\Microsoft\\jdk-11.0.16.101-hotspot\\bin\\api-ms-win-core-profile-l1-1-0.dll',
   'BINARY'),
  ('api-ms-win-core-namedpipe-l1-1-0.dll',
   'C:\\Program '
   'Files\\Microsoft\\jdk-11.0.16.101-hotspot\\bin\\api-ms-win-core-namedpipe-l1-1-0.dll',
   'BINARY'),
  ('api-ms-win-core-processthreads-l1-1-0.dll',
   'C:\\Program '
   'Files\\Microsoft\\jdk-11.0.16.101-hotspot\\bin\\api-ms-win-core-processthreads-l1-1-0.dll',
   'BINARY'),
  ('api-ms-win-core-localization-l1-2-0.dll',
   'C:\\Program '
   'Files\\Microsoft\\jdk-11.0.16.101-hotspot\\bin\\api-ms-win-core-localization-l1-2-0.dll',
   'BINARY'),
  ('api-ms-win-core-file-l1-2-0.dll',
   'C:\\Program '
   'Files\\Microsoft\\jdk-11.0.16.101-hotspot\\bin\\api-ms-win-core-file-l1-2-0.dll',
   'BINARY'),
  ('api-ms-win-core-debug-l1-1-0.dll',
   'C:\\Program '
   'Files\\Microsoft\\jdk-11.0.16.101-hotspot\\bin\\api-ms-win-core-debug-l1-1-0.dll',
   'BINARY'),
  ('api-ms-win-core-synch-l1-2-0.dll',
   'C:\\Program '
   'Files\\Microsoft\\jdk-11.0.16.101-hotspot\\bin\\api-ms-win-core-synch-l1-2-0.dll',
   'BINARY')],
 [],
 [],
 [('base_library.zip',
   'C:\\Users\\User\\Desktop\\projects\\trivia-project\\Proxy '
   'Server\\build\\main\\base_library.zip',
   'DATA'),
  ('websockets-12.0.dist-info\\REQUESTED',
   'C:\\Users\\User\\Desktop\\projects\\trivia-project\\Proxy '
   'Server\\venv\\Lib\\site-packages\\websockets-12.0.dist-info\\REQUESTED',
   'DATA'),
  ('websockets-12.0.dist-info\\INSTALLER',
   'C:\\Users\\User\\Desktop\\projects\\trivia-project\\Proxy '
   'Server\\venv\\Lib\\site-packages\\websockets-12.0.dist-info\\INSTALLER',
   'DATA'),
  ('websockets-12.0.dist-info\\top_level.txt',
   'C:\\Users\\User\\Desktop\\projects\\trivia-project\\Proxy '
   'Server\\venv\\Lib\\site-packages\\websockets-12.0.dist-info\\top_level.txt',
   'DATA'),
  ('websockets-12.0.dist-info\\LICENSE',
   'C:\\Users\\User\\Desktop\\projects\\trivia-project\\Proxy '
   'Server\\venv\\Lib\\site-packages\\websockets-12.0.dist-info\\LICENSE',
   'DATA'),
  ('websockets-12.0.dist-info\\WHEEL',
   'C:\\Users\\User\\Desktop\\projects\\trivia-project\\Proxy '
   'Server\\venv\\Lib\\site-packages\\websockets-12.0.dist-info\\WHEEL',
   'DATA'),
  ('websockets-12.0.dist-info\\METADATA',
   'C:\\Users\\User\\Desktop\\projects\\trivia-project\\Proxy '
   'Server\\venv\\Lib\\site-packages\\websockets-12.0.dist-info\\METADATA',
   'DATA'),
  ('websockets-12.0.dist-info\\RECORD',
   'C:\\Users\\User\\Desktop\\projects\\trivia-project\\Proxy '
   'Server\\venv\\Lib\\site-packages\\websockets-12.0.dist-info\\RECORD',
   'DATA')])
